0 5 0.89844 0.00013
5 10 0.841932 9.4e-05 
10 15 0.811828 6.7e-05
15 20 0.794583 4.9e-05 
20 25 0.781798 3.5e-05 
25 30 0.77092 0.00066
30 35 0.76095 0.00041
35 40 0.75127 0.00016
40 45 0.741507 7.9e-05 
45 50 0.7314 0.00018 
50 55 0.72068 0.00072
55 60 0.70923 0.00033
60 65 0.69697 0.00014
65 70 0.68361 0.00059
70 75 0.66862 0.00033
75 80 0.65152 0.00017
80 85 0.63181 0.00076
85 90 0.6111 0.0011
90 95 0.58582 0.00032
95 100 0.552 0.021
100 105 0.531 0.016
105 110 0.57 0.72
110 115 0.58 0.34
115 120 0.53 0.17
120 125 0.495 0.077
125 130 0.46 0.039
130 135 0 0